Date,Tree,Height,Leaves,Status,Lushness
{{- $timestamp := .Date.Format "2006-01-02" -}}
{{- range .Params.observations }}
{{ $timestamp }},{{ .id }},{{ .height }},{{ .leaves }},{{ .status }},{{ .lushness }}
{{- end }}
